{
    "status": "success",
    "message": "Transactions retrieved successfully",
    "data": {
        "current_page": 1,
        "data": [
            {
                "id": 3947,
                "uuid": "2d2ff0617a724d04bdc829e51ce59285",
                "ref": "3338767f783e438cb2f33199daa95549",
                "business_uuid": "5e608884917a498b8395900f9a17df61",
                "account_id": "4e5d6d94e96446ea9ffbfa87d06c411e",
                "bank_uuid": "a1b2c3d4",
                "amount": 1000,
                "balance": 1000,
                "date": "2024-08-23T11:23:31.000000Z",
                "type": "debit",
                "narration": "Airtime purchase",
                "category": null,
                "currency": "NGN"
            },
            {
                "id": 3946,
                "uuid": "1f9f2284472b452ca39b725008be4469",
                "ref": "2594d658f6d2492799eac1f451c0e4eb",
                "business_uuid": "5e608884917a498b8395900f9a17df61",
                "account_id": "4e5d6d94e96446ea9ffbfa87d06c411e",
                "bank_uuid": "a1b2c3d4",
                "amount": 1000,
                "balance": 1000,
                "date": "2024-08-23T11:21:00.000000Z",
                "type": "debit",
                "narration": "Airtime purchase",
                "category": null,
                "currency": "NGN",
                "base_currency": "USD"
            },
            {
                "id": 3945,
                "uuid": "06d2f241300e468baeb36cb0dd5fd9b2",
                "ref": "2fff0e19448948d18c6bc5eb21425ef7",
                "business_uuid": "5e608884917a498b8395900f9a17df61",
                "account_id": "4e5d6d94e96446ea9ffbfa87d06c411e",
                "bank_uuid": "a1b2c3d4",
                "amount": 1000,
                "balance": 1000,
                "date": "2024-08-23T11:18:55.000000Z",
                "type": "debit",
                "narration": "Airtime purchase",
                "category": null,
                "currency": "NGN",
                "base_currency": "USD"
            },
            {
                "id": 3944,
                "uuid": "81c3a36365fa46cabe99be6bf3d900f4",
                "ref": "16bf3bbcc9394f4793ff28bb37fddaaa",
                "business_uuid": "5e608884917a498b8395900f9a17df61",
                "account_id": "4e5d6d94e96446ea9ffbfa87d06c411e",
                "bank_uuid": "a1b2c3d4",
                "amount": 1000,
                "balance": 1000,
                "date": "2024-08-20T13:22:45.000000Z",
                "type": "outflow",
                "narration": "Airtime purchase",
                "category": null,
                "currency": "NGN",
                "base_currency": "NGN"
            },
            {
                "id": 3943,
                "uuid": "2766138cc70d493193ad44b95d57d185",
                "ref": "ab99c6c3a0014e22b64ed58197f95c29",
                "business_uuid": "5e608884917a498b8395900f9a17df61",
                "account_id": "4e5d6d94e96446ea9ffbfa87d06c411e",
                "bank_uuid": "a1b2c3d4",
                "amount": 2000,
                "balance": 2000,
                "date": "2024-08-20T12:35:45.000000Z",
                "type": "inflow",
                "narration": "shoe payment",
                "category": null,
                "currency": "NGN"
            },
            {
                "id": 3639,
                "uuid": "f16a9138a60b4ed9a4c6e64f297d8299",
                "ref": "bcd4487875aa43c7a8775a7bf0751c24",
                "business_uuid": "5e608884917a498b8395900f9a17df61",
                "account_id": "4e5d6d94e96446ea9ffbfa87d06c411e",
                "bank_uuid": "a1b2c3d4",
                "amount": 4000,
                "balance": 124064.8,
                "date": "2024-05-31T21:41:06.000000Z",
                "type": "debit",
                "narration": "Bank charges",
                "category": null,
                "currency": "NGN"
            },
            {
                "id": 3638,
                "uuid": "40e89038ffce46ddbfc197df843d10f1",
                "ref": "74e9a6e849b148f59a38ca2a1c61a431",
                "business_uuid": "5e608884917a498b8395900f9a17df61",
                "account_id": "4e5d6d94e96446ea9ffbfa87d06c411e",
                "bank_uuid": "66b6303eff5cd46c707a5343",
                "amount": 34000,
                "balance": 128064.8,
                "date": "2024-05-31T21:41:06.000000Z",
                "type": "debit",
                "narration": "Bank charges",
                "category": null,
                "currency": "NGN"
            },
            {
                "id": 3621,
                "uuid": "787a40271bf14240bc5ec27a4f598960",
                "ref": "1a1c632c8e3641b197d33f5a55c47158",
                "business_uuid": "5e608884917a498b8395900f9a17df61",
                "account_id": "4e5d6d94e96446ea9ffbfa87d06c411e",
                "bank_uuid": "66b6303eff5cd46c707a5343",
                "amount": 4000,
                "balance": 124064.8,
                "date": "2024-05-31T21:28:28.000000Z",
                "type": "debit",
                "narration": "Bank charges",
                "category": null,
                "currency": "NGN"
            },
            {
                "id": 3620,
                "uuid": "68e5e707199d4f98be7a9abebc9676b2",
                "ref": "883af055a2314793bba15be10aa9780b",
                "business_uuid": "5e608884917a498b8395900f9a17df61",
                "account_id": "4e5d6d94e96446ea9ffbfa87d06c411e",
                "bank_uuid": "66b6303eff5cd46c707a5343",
                "amount": 34000,
                "balance": 128064.8,
                "date": "2024-05-31T21:28:28.000000Z",
                "type": "debit",
                "narration": "Bank charges",
                "category": null,
                "currency": "NGN"
            },
            {
                "id": 3603,
                "uuid": "a62e0070e7ea469c9d15dfe2819ad7cc",
                "ref": "4184748643fb46c0a92993d098abce93",
                "business_uuid": "5e608884917a498b8395900f9a17df61",
                "account_id": "4e5d6d94e96446ea9ffbfa87d06c411e",
                "bank_uuid": "66b6303eff5cd46c707a5343",
                "amount": 4000,
                "balance": 124064.8,
                "date": "2024-05-31T21:28:08.000000Z",
                "type": "debit",
                "narration": "Bank charges",
                "category": null,
                "currency": "NGN"
            }
        ],
        "first_page_url": "http://127.0.0.1:8000/api/v2/bank/transactions/4e5d6d94e96446ea9ffbfa87d06c411e?page=1",
        "from": 1,
        "last_page": 8,
        "last_page_url": "http://127.0.0.1:8000/api/v2/bank/transactions/4e5d6d94e96446ea9ffbfa87d06c411e?page=8",
        "links": [
            {
                "url": null,
                "label": "&laquo; Previous",
                "active": false
            },
            {
                "url": "http://127.0.0.1:8000/api/v2/bank/transactions/4e5d6d94e96446ea9ffbfa87d06c411e?page=1",
                "label": "1",
                "active": true
            },
            {
                "url": "http://127.0.0.1:8000/api/v2/bank/transactions/4e5d6d94e96446ea9ffbfa87d06c411e?page=2",
                "label": "2",
                "active": false
            },
            {
                "url": "http://127.0.0.1:8000/api/v2/bank/transactions/4e5d6d94e96446ea9ffbfa87d06c411e?page=3",
                "label": "3",
                "active": false
            },
            {
                "url": "http://127.0.0.1:8000/api/v2/bank/transactions/4e5d6d94e96446ea9ffbfa87d06c411e?page=4",
                "label": "4",
                "active": false
            },
            {
                "url": "http://127.0.0.1:8000/api/v2/bank/transactions/4e5d6d94e96446ea9ffbfa87d06c411e?page=5",
                "label": "5",
                "active": false
            },
            {
                "url": "http://127.0.0.1:8000/api/v2/bank/transactions/4e5d6d94e96446ea9ffbfa87d06c411e?page=6",
                "label": "6",
                "active": false
            },
            {
                "url": "http://127.0.0.1:8000/api/v2/bank/transactions/4e5d6d94e96446ea9ffbfa87d06c411e?page=7",
                "label": "7",
                "active": false
            },
            {
                "url": "http://127.0.0.1:8000/api/v2/bank/transactions/4e5d6d94e96446ea9ffbfa87d06c411e?page=8",
                "label": "8",
                "active": false
            },
            {
                "url": "http://127.0.0.1:8000/api/v2/bank/transactions/4e5d6d94e96446ea9ffbfa87d06c411e?page=2",
                "label": "Next &raquo;",
                "active": false
            }
        ],
        "next_page_url": "http://127.0.0.1:8000/api/v2/bank/transactions/4e5d6d94e96446ea9ffbfa87d06c411e?page=2",
        "path": "http://127.0.0.1:8000/api/v2/bank/transactions/4e5d6d94e96446ea9ffbfa87d06c411e",
        "per_page": 10,
        "prev_page_url": null,
        "to": 10,
        "total": 77
    }
}
